Kaggle: Titanic EDA
…
Second cheapest itckets (blue) who embareked at Port S who were more likely to die. Most expensive tickets(orange) who embarked at Ports C and S were more likely to survive. SEcond most expensive ticket (purple) who embarked at Port S .

#Make percentages by port
port_fare_df <- all %>%
  filter(isTrain == 1, !is.na(Embarked)) %>%
  group_by(Embarked, Fare_cat, Survived) %>%
  summarise(n = n()) %>%
  ungroup() %>%
  group_by(Embarked) %>%
  mutate(embarked_sum = sum(n),
    embarked_percentage = round(n/embarked_sum,2)) 
port_fare_df

## # A tibble: 30 x 6
## # Groups:   Embarked [3]
##    Embarked Fare_cat Survived     n embarked_sum embarked_percentage
##      <fctr>   <fctr>   <fctr> <int>        <int>               <dbl>
##  1        C        1     Died    22          168                0.13
##  2        C        1 Survived     7          168                0.04
##  3        C        2     Died     6          168                0.04
##  4        C        2 Survived     2          168                0.01
##  5        C        3     Died    16          168                0.10
##  6        C        3 Survived    18          168                0.11
##  7        C        4     Died    15          168                0.09
##  8        C        4 Survived    14          168                0.08
##  9        C        5     Died    16          168                0.10
## 10        C        5 Survived    52          168                0.31
## # ... with 20 more rows
…
